{
    "user_data" : [
        {
            "first_name" : "Vikas",
            "last_name" : "Balwada",
            "phone_number" : 7503757612
        },
        {
            "first_name" : "Aditya",
            "last_name" : "Agarwalla",
            "phone_number" : 9111011382 
        }
    ]
}